<?xml version="1.0" standalone="no"?>
<!DOCTYPE svg PUBLIC "-//W3C//DTD SVG 1.1//EN" "http://www.w3.org/Graphics/SVG/1.1/DTD/svg11.dtd">
<svg xmlns="http://www.w3.org/2000/svg">
<metadata>Copyright (C) 2015 by original authors @ fontello.com</metadata>
<defs>
<font id="sk-icons" horiz-adv-x="1000" >
<font-face font-family="sk-icons" font-weight="400" font-stretch="normal" units-per-em="1000" ascent="850" descent="-150" />
<missing-glyph horiz-adv-x="1000" />
<glyph glyph-name="search" unicode="&#xe800;" d="m335 246l25-25q-28-28-85-86t-73-74l-27 27q16 15 74 73t86 85z m245 551q136 0 234-97t97-234-97-234-234-96q-64 0-123 24l-255-257-184 185 256 255q-26 63-26 123 0 137 98 234t234 97z m0-551q91 0 155 64t64 156-64 155-155 64-156-64-64-155 64-156 156-64z" horiz-adv-x="928" />
<glyph glyph-name="mail" unicode="&#xe801;" d="m467 366l-449 210 0 109 893 0 0-109z m0-123l444 210 0-437-893 0 0 438z" horiz-adv-x="928" />
<glyph glyph-name="up-open" unicode="&#xe802;" d="m564 280q16-16 16-41t-16-41q-38-38-78 0l-196 188-196-188q-40-38-78 0-16 16-16 41t16 41l234 224q16 16 40 16t40-16z" horiz-adv-x="580" />
<glyph glyph-name="right-open" unicode="&#xe803;" d="m98 626l226-236q16-16 16-40 0-22-16-38l-226-236q-16-16-40-16t-40 16q-36 36 0 80l186 194-186 196q-36 44 0 80 16 16 41 16t39-16z" horiz-adv-x="340" />
<glyph glyph-name="left-open" unicode="&#xe804;" d="m242 626q14 16 39 16t41-16q38-36 0-80l-186-196 186-194q38-44 0-80-16-16-40-16t-40 16l-226 236q-16 16-16 38 0 24 16 40 206 214 226 236z" horiz-adv-x="341" />
<glyph glyph-name="down-open" unicode="&#xe805;" d="m564 422l-234-224q-18-18-40-18t-40 18l-234 224q-16 16-16 41t16 41q38 38 78 0l196-188 196 188q40 38 78 0 16-16 16-41t-16-41z" horiz-adv-x="580" />
<glyph glyph-name="male" unicode="&#xe806;" d="m0 209q0 149 105 254t254 106q106 0 196-57l199 199-152 0 0 139 390 0 0-391-140 0 0 151-196-198q63-91 63-203 0-148-106-254t-255-105-253 105-105 254z m145 1q0-88 62-152t151-63 153 63 63 152-63 152-153 62-151-62-62-152z" horiz-adv-x="992" />
<glyph glyph-name="female" unicode="&#xe807;" d="m0 528q0 133 94 227t226 95 228-95 95-227q0-116-75-204t-185-111l0-103 137 0 0-123-137 0 0-137-123 0 0 137-139 0 0 123 139 0 0 103q-112 22-186 111t-74 204z m127 0q0-80 57-137t136-57 137 57 57 137-57 137-137 56-136-56-57-137z" horiz-adv-x="643" />
<glyph glyph-name="doc-inv" unicode="&#xe808;" d="m409 797l279-278 0-616-670 0 0 894 391 0z m-59-335l224 0-224 223 0-223z" horiz-adv-x="705" />
<glyph glyph-name="chat-inv" unicode="&#xe809;" d="m688 462q0-92-65-158t-159-65q0 46-33 79t-78 33l-112 0q-93 0-158 55t-65 168q0 114 65 168t158 55l223 0q92 0 158-58t66-165l0-112z m-335 0z m0 0z m390-6q74-14 121-68t47-149q0-113-65-168t-158-55l-112 0q-46 0-79-34t-33-79q-92 0-157 66t-66 158l0 112q0 29 6 56l106 0q24 0 40-17t16-39l0-55 55 0q113 0 195 79t84 193z" horiz-adv-x="928" />
<glyph glyph-name="comment-inv" unicode="&#xe80a;" d="m18 183l0 278q0 115 82 197t198 83l278 0q139 0 237-99t98-236-98-237-237-98l-223 0q-46 0-79-33t-33-79q-92 0-157 66t-66 158z" horiz-adv-x="928" />
<glyph glyph-name="pencil-neg" unicode="&#xe80b;" d="m846 731q66-66 66-157t-66-158l-512-513-316 0 1 317 511 511q66 66 158 66t158-66z m-559-716q32 32 32 79t-32 80-79 32-80-33l0-158 159 0z m477 479q33 32 33 79t-32 79-79 32-79-32z" horiz-adv-x="928" />
<glyph glyph-name="heart" unicode="&#xe80c;" d="m464 633q78 108 200 108 102 0 175-73t72-176l0-20-447-513-446 513 0 20q0 102 73 175t175 74q120 0 198-108z" horiz-adv-x="928" />
<glyph glyph-name="facebook" unicode="&#xe80d;" d="m535 843v-147h-87q-48 0-65-20t-17-60v-106h164l-22-165h-142v-424h-171v424h-142v165h142v122q0 104 58 161t155 57q82 0 127-7z" horiz-adv-x="571.4" />
<glyph glyph-name="video" unicode="&#xe80e;" d="m799 574l112 111-109 112 109 0 0-894-893 0 0 894 112 0 112-112-114-111 113 0 114 113-111 110 157 0 113-112-114-111 132 0 114 113-112 110 156 0 109-112-110-111 110 0z m0-557l0 112-669 0 0-112 669 0z m0 222l0 112-669 0 0-112 669 0z" horiz-adv-x="928" />
<glyph glyph-name="layers" unicode="&#xe80f;" d="m18 183l446-112 447 112 0-112-447-112-446 112 0 112z m0 223l446-112 447 112 0-112-447-111-446 111 0 112z m0 223l446 112 447-112 0-111-447-112-446 112 0 111z" horiz-adv-x="928" />
<glyph glyph-name="home" unicode="&#xe810;" d="m464 797l447-446-112 0 0-448-669 0 0 448-112 0z m224-781l0 401-224 157-223-157 0-401 168 0 0 168 112 0 0-168 167 0z" horiz-adv-x="928" />
<glyph glyph-name="facebook-rect" unicode="&#xe811;" d="m1000 761v-824q0-36-26-62t-62-26h-824q-36 0-62 26t-26 62v824q0 36 26 62t62 26h824q36 0 62-26t26-62z m-187-160l20 118q-43 15-143 15-79 0-123-58-26-34-26-119v-78h-79v-115h79v-400h149v400h118l9 115h-127v90q0 42 59 42 31 0 64-10z" horiz-adv-x="1000" />
<glyph glyph-name="googleplus-rect" unicode="&#xe812;" d="m1000 761v-824q0-36-26-62t-62-26h-824q-36 0-62 26t-26 62v824q0 36 26 62t62 26h824q36 0 62-26t26-62z m-237-239h121v60h-121v122h-60v-122h-122v-60h122v-121h60v121z m-215 163q0 11-22 11-3 1-52 1h-72q-24 0-61-4t-59-11q-58-19-92-62t-35-102q0-70 44-113 43-42 111-42h9q0-24 2-35t5-11 8-5 8-15q-55 0-102-12t-86-48-38-91q0-77 62-114t143-38q92 0 160 46t67 133q0 38-19 73t-44 55-43 39-20 28q0 11 15 26t34 29 33 46 15 74q0 76-44 107 1 0 16 2t20 3 17 5 16 10 4 15z m-135-170q0-35-15-60t-49-25q-43 0-68 46t-26 91q0 35 16 60t48 25q43 0 69-45t25-92z m55-345q0-44-43-71t-90-27-85 24-39 68q0 48 41 72t92 24q46 0 85-23t39-67z" horiz-adv-x="1000" />
<glyph glyph-name="print" unicode="&#xe813;" d="m214-7h500v143h-500v-143z m0 357h500v214h-89q-22 0-38 16t-16 38v89h-357v-357z m643-36q0 15-10 25t-26 11-25-11-10-25 10-25 25-10 26 10 10 25z m72 0v-232q0-7-6-12t-12-6h-125v-89q0-22-16-38t-38-16h-536q-22 0-37 16t-16 38v89h-125q-7 0-13 6t-5 12v232q0 44 32 76t75 31h36v304q0 22 16 38t37 16h375q23 0 50-12t42-26l85-85q15-16 27-43t11-49v-143h35q45 0 76-31t32-76z" horiz-adv-x="928.6" />
<glyph glyph-name="star" unicode="&#xe814;" d="m929 489q0-12-15-27l-203-197 48-279q1-4 1-12 0-11-6-19t-17-9q-10 0-22 7l-251 132-250-132q-13-7-23-7-11 0-17 9t-6 19q0 4 1 12l48 279-203 197q-14 15-14 27 0 21 31 26l280 40 126 254q11 23 27 23t28-23l125-254 280-40q32-5 32-26z" horiz-adv-x="928.6" />
<glyph glyph-name="star-empty" unicode="&#xe815;" d="m634 290l171 165-235 35-106 213-105-213-236-35 171-165-41-235 211 111 211-111z m295 199q0-12-15-27l-203-197 48-279q1-4 1-12 0-28-23-28-10 0-22 7l-251 132-250-132q-13-7-23-7-11 0-17 9t-6 19q0 4 1 12l48 279-203 197q-14 15-14 27 0 21 31 26l280 40 126 254q11 23 27 23t28-23l125-254 280-40q32-5 32-26z" horiz-adv-x="928.6" />
<glyph glyph-name="thumbs-up" unicode="&#xe816;" d="m811 470q38-13 58-51t15-77l-35-312q-6-39-32-70t-58-44q-5-1-26-9t-29-11-30-7-45-6-56-2q-83 0-174 26t-130 56q-1 1-3 2t-4 4-3 4q-46-40-103-40-65 0-110 45t-46 111l0 313q0 65 46 110t110 46q77 0 124-63 44 44 64 85t21 108q0 54 38 92t92 39 92-39 38-92q0-94-16-188 170-17 202-30z m-655-432q22 0 37 15t16 36l0 313q0 21-16 36t-37 16-37-16-15-36l0-313q0-21 15-36t37-15z m590 7l35 312q3 12-6 16-15 4-107 15t-119 14l-69-10 16 73q25 117 25 223 0 10-8 18t-18 8-18-8-8-18q0-54-11-98t-32-78-37-51-40-43q-36-36-36-69l0-260q0-30 18-44 24-17 99-38t143-22q26 0 45 2t35 4 23 6 23 8 24 9q6 3 14 13t9 18z" horiz-adv-x="885" />
<glyph glyph-name="thumbs-down" unicode="&#xe817;" d="m729 768q65 0 111-46t45-110l0-313q0-65-45-111t-111-45q-76 0-124 62-42-42-63-84t-21-109q0-54-38-92t-92-39-92 39-39 92q0 95 16 188-173 19-201 29-37 14-59 52t-15 78l35 311q7 38 32 70t58 44q5 1 26 9t29 11 30 8 45 6 57 1q82 0 174-26t131-55q2-2 5-5t3-5q47 40 103 40z m-313-755q0 54 11 97t33 78 36 52 40 43q37 36 37 69l0 260q0 11-7 25t-12 18q-24 18-99 39t-142 21q-27 0-46-1t-35-4-23-6-23-9-23-8q-7-3-15-13t-9-19l-34-311q-2-12 5-16 15-4 108-15t118-14l69 10-15-74q-25-122-25-222 0-10 8-18t17-8 18 8 8 18z m365 286l0 313q0 21-15 36t-37 15-36-15-15-36l0-313q0-21 15-37t36-15 37 15 15 37z" horiz-adv-x="885" />
<glyph glyph-name="thumbs-up-1" unicode="&#xe818;" d="m0-63l0 552q0 16 10 25t25 11l147 0q33 0 35-36l0-552q0-14-10-24t-25-12l-147 0q-13 0-23 10t-12 26z m277 27l0 500q0 22 14 35t37 16l113 0 114 252q13 31 41 31 37 2 93-61 18-25 25-55t6-48-9-64-10-55l248 0q26 0 38-17t11-44l-70-429q-12-42-53-74t-88-38l-459 0q-21 0-35 14t-16 37z" horiz-adv-x="998" />
<glyph glyph-name="play-circle2" unicode="&#xe819;" d="m465 797q184 0 315-131t131-316-131-315-315-132-316 132-131 315 131 316 316 131z m-167-670l446 224-446 223 0-447z" horiz-adv-x="928" />
</font>
</defs>
</svg>